Opinion,Count
Vim and Neovim would stay completely separate projects.,185
Neovim would merge back into Vim.,97
Vim would merge into Neovim.,97
The community would start a project with a new name and merge Vim and Neovim into it.,23
"They're separated project, it's not about living in an ideal world",1
Both projects are still separate but they try to follow an API / Guideline on Vim-like editor and try to implement good ideas from to the other. And design the API together,1
Doesn't matter as long as Vim works.,1
no one knows,1
N/A,1
There is no ideal world!,1
