Opinion,Count
Yes - new improvements would never have been accepted into Vim.,272
Somewhat - new improvements would have been accepted into Vim eventually.,96
I don't know.,45
I don't care.,8
No - new improvements would have been accepted into Vim as fast as they come.,7
"Yes, improvements were sped up.",1
I can't understand it.,1
"Yes, my perception is that neovim reinvigorated vim development",1
