Opinion,Count
It doesn't.,422
"A lot - I am unable to switch to Neovim, as it doesn't support my platform, and I'm stuck with Vim.",2
a little?,1
I don't know what that means.,1
I can't understand it.,1
"It affects me a little bit, if it doesnt work on some devices i just use regular vim",1
"Only a little. Some plugins are either only compatible with vim, or have unnecessarily complicated documentation / bugs BECAUSE they're compatible with both",1
I do not care for neovim,1
I don't use neovim => I don't care,1
