Opinion,Count
"Vi and Vim",87
"Vim",46
I don't use SSH enough to answer properly.,43
I don't use SSH.,28
"Vim and Neovim",27
Vim,27
"Vi and Vim",25
"Vi, Vim and Neovim",23
Neovim,13
"Vi and no Neovim",12
